final_assignment
…
Data cleaning

# Nr of unique games in the dataset
chess |>
  group_by(game_id) |>
  summarize(n = n()) |>
  arrange(desc(n))

# A tibble: 19,113 × 2
   game_id      n
   <chr>    <int>
 1 XRuQPSzH     5
 2 0gTDO6Av     4
 3 1b0kpInt     4
 4 CvakmVNb     4
 5 CxQlHSnq     4
 6 DijZlfMy     4
 7 GstYv2mJ     4
 8 I8odmGjb     4
 9 LyRqbD4d     4
10 O037dETy     4
# ℹ 19,103 more rows
…
player_rank2 <- chess_clean |> 
  select(black_id, black_rating) |>
  distinct_at(vars(black_id), .keep_all = TRUE) |>
  rename(player = black_id, ranking = black_rating)

player_rank <- bind_rows(player_rank, player_rank2)|>
  group_by(player) |> 
  slice_max(ranking, n = 1) |> 
  distinct()

player_statistics <-  player_statistics |> left_join(player_rank, by = "player") #join players' rank to player statistics

player_statistics

# A tibble: 15,635 × 9
   player       games_nr white_id black_id white_rate black_rate win_nr win_rate
   <chr>           <int>    <int>    <int>      <dbl>      <dbl>  <int>    <dbl>
 1 bourgris            1        1        0      1          0          1    1    
 2 a-00                3        1        2      0.333      0.667      0    0    
 3 skinnerua           1        0        1      0          1          1    1    
 4 ischia              1        1        0      1          0          1    1    
 5 daniamurash…        4        4        0      1          0          4    1    
 6 adivanov2009        4        0        4      0          1          0    0    
 7 nik221107           3        3        0      1          0          2    0.667
 8 trelynn17           2        2        0      1          0          0    0    
 9 franklin145…        1        0        1      0          1          0    0    
10 capa_jr             1        1        0      1          0          1    1    
# ℹ 15,625 more rows
# ℹ 1 more variable: ranking <dbl>
…
Results: linearity, homoscedasticity and normality plots seem acceptable; small protursion of predicitons

Influential outliers

games_lm |> 
  augment() |>
  select(.cooksd) |>
  arrange(desc(.cooksd))

# A tibble: 15,635 × 1
   .cooksd
     <dbl>
 1 0.0105 
 2 0.00734
 3 0.00564
 4 0.00449
 5 0.00409
 6 0.00389
 7 0.00380
 8 0.00306
 9 0.00306
10 0.00305
# ℹ 15,625 more rows
…
Results: Cook’s distances are under 1

games_lm |> 
  augment() |>
  select(.std.resid) |>
  arrange(desc(.std.resid))

# A tibble: 15,635 × 1
   .std.resid
        <dbl>
 1       4.08
 2       3.62
 3       3.60
 4       3.52
 5       3.49
 6       3.47
 7       3.47
 8       3.40
 9       3.35
10       3.31
# ℹ 15,625 more rows
…
Results: Homogenity, linearity and normailty seem acceptable; small protursion in predicitons

VIF: not applicable

Influential outliers

lm_win |> 
  augment() |>
  select(.cooksd) |>
  arrange(desc(.cooksd))

# A tibble: 15,635 × 1
    .cooksd
      <dbl>
 1 0.000927
 2 0.000865
 3 0.000861
 4 0.000849
 5 0.000808
 6 0.000786
 7 0.000781
 8 0.000751
 9 0.000728
10 0.000720
# ℹ 15,625 more rows

# all Cook's distances are under 1

Results: Cook’s distances under 1

lm_win |> 
  augment() |>
  select(.std.resid) |>
  arrange(desc(.std.resid))

# A tibble: 15,635 × 1
   .std.resid
        <dbl>
 1       4.08
 2       3.67
 3       3.63
 4       3.51
 5       3.50
 6       3.47
 7       3.46
 8       3.41
 9       3.33
10       3.32
# ℹ 15,625 more rows
…
vif(lm_role)

  win_rate white_rate 
  1.002842   1.002842 

Results: VIFs seem acceptable based on test + plot

Influential outliers

lm_win |> 
  augment() |>
  select(.cooksd) |>
  arrange(desc(.cooksd))

# A tibble: 15,635 × 1
    .cooksd
      <dbl>
 1 0.000927
 2 0.000865
 3 0.000861
 4 0.000849
 5 0.000808
 6 0.000786
 7 0.000781
 8 0.000751
 9 0.000728
10 0.000720
# ℹ 15,625 more rows

Results: Cook’s distances below 1

lm_role |> 
  augment() |>
  select(.std.resid) |>
  arrange(desc(.std.resid))

# A tibble: 15,635 × 1
   .std.resid
        <dbl>
 1       4.08
 2       3.66
 3       3.62
 4       3.52
 5       3.49
 6       3.47
 7       3.47
 8       3.40
 9       3.34
10       3.31
# ℹ 15,625 more rows
…
